{"hash":"71e7e97ad21d597f76c818c07a7609942d63a193","data":{"posts":{"totalCount":6,"pageInfo":{"totalPages":2,"currentPage":2},"edges":[{"node":{"id":"e12060a594296c55c1469771dd8e8442","title":"2019년 회고","path":"/2019-retrospection/","date":"06 January 2020","timeToRead":3,"description":"개발을 시작한 이래로 이렇게 글의 형태로 회고를 기록하는 것은 처음인듯 하다. 회고라는 것이 객관적으로 본인을 돌아보고 반성과 깨달음, 성취감과 자신감 등을 얻는 게 목적이지 남에게 공유하는 것은 부수적인 것이라고 생각했기 때문이다.","tags":[{"id":"Essay","title":"Essay","path":"/tag/Essay/"}]}}]}},"context":{}}