{"hash":"71e7e97ad21d597f76c818c07a7609942d63a193","data":{"posts":{"totalCount":6,"pageInfo":{"totalPages":2,"currentPage":1},"edges":[{"node":{"id":"7cf656da37903b497c908bf54d63bebe","title":"[Vue.js] computed vs watch - computed와 watch의 차이점","path":"/vue-computed-vs-watch/","date":"17 February 2020","timeToRead":2,"description":"Vue.js에서 데이터 변경에 반응하여 후속 동작을 취해야 할 때 computed와 watch 속성을 흔히 사용한다. 언뜻 비슷해 보이는 두 속성의 차이점은 무엇인지, 상황 별로 어느 것을 사용해야 적합한지 알아본다.","tags":[{"id":"Vue.js","title":"Vue.js","path":"/tag/Vue.js/"}]}},{"node":{"id":"8ad5d291a440cf7cbda58d28f67f29de","title":"MutationObserver - DOM 변경 감지","path":"/mutation-observer/","date":"04 February 2020","timeToRead":2,"description":"Web API 중 하나인 MutationObserver의 기능과 용도를 간단한 예제 코드와 함께 알아본다.","tags":[{"id":"JavaScript","title":"JavaScript","path":"/tag/JavaScript/"},{"id":"HTML","title":"HTML","path":"/tag/HTML/"}]}},{"node":{"id":"3f0d12807965aa8703572f9beb34851c","title":"Gridsome으로 블로그 개설하기 - 본격적인 블로그 만들기","path":"/make-blog-with-gridsome-2nd/","date":"12 January 2020","timeToRead":4,"description":"Gridsome 이라는 Vue.js 기반 정적 사이트 생성기(Static Site Generator, SSG)와 gh-pages를 활용하여 블로그를 개설하는 방법을 다룬다. 두 번째 포스팅은 예제를 통해 실제로 블로그를 구축해 보면서 어떻게 블로그를 개설할 수 있는지 자세히 살펴본다.","tags":[{"id":"Vue.js","title":"Vue.js","path":"/tag/Vue.js/"},{"id":"Gridsome","title":"Gridsome","path":"/tag/Gridsome/"}]}},{"node":{"id":"f32ead13e64e4c769e69af9ce12ddbaf","title":"Gridsome으로 블로그 개설하기 - 시작하기에 앞서","path":"/make-blog-with-gridsome-1st/","date":"12 January 2020","timeToRead":2,"description":"Gridsome 이라는 Vue.js 기반 정적 사이트 생성기(Static Site Generator, SSG)와 gh-pages를 활용하여 블로그를 개설하는 방법을 다룬다. 첫 번째 포스팅은 Gridsome이 무엇인지, 다른 정적 사이트 생성기와 비교하여 어떤 특징이 있는지 간략하게 살펴본다.","tags":[{"id":"Vue.js","title":"Vue.js","path":"/tag/Vue.js/"},{"id":"Gridsome","title":"Gridsome","path":"/tag/Gridsome/"}]}},{"node":{"id":"8421a704358919173763ccb631453228","title":"블로그를 시작하며 적어보는 소소한 2020년 목표","path":"/init-blog-and-goal/","date":"10 January 2020","timeToRead":2,"description":"올해부터는 블로그를 시작해보자 마음먹고 블로그를 개설하게 되었다. 항상 해야지 해야지 마음만 먹고 바쁘다는 핑계를 대며 미루기 바빴는데, 마침 휴직덕에 시간도 좀 생기고 해서 이번에는 진짜 블로그를 개설하겠노라 마음먹고 시작하게 되었다.","tags":[{"id":"Essay","title":"Essay","path":"/tag/Essay/"}]}}]}},"context":{}}